…
You can see that for this data file, we have daily step data for five participants, but each column is the date - sometimes called a "wide" format. We want to turn that into a narrow file, with three variables: id, date, and totalsteps.

``` r
p1_p5_DailySteps<- gather_example %>% 
  gather(`1/9/12`, `1/10/12`, `1/11/12`, `1/12/12`, `1/13/12`, `1/14/12`, `1/15/12`, 
         key = "date", value = "totalsteps")

p1_p5_DailySteps
```

    ## # A tibble: 35 x 3
    ##       ID date    totalsteps
    ##    <int> <chr>        <int>
    ##  1     1 1/9/12        6425
    ##  2     2 1/9/12        1105
    ##  3     3 1/9/12        7168
    ##  4     4 1/9/12        1564
    ##  5     5 1/9/12        1279
    ##  6     1 1/10/12       9261
    ##  7     2 1/10/12       1197
    ##  8     3 1/10/12       6851
    ##  9     4 1/10/12       1162
    ## 10     5 1/10/12       1862
    ## # ... with 25 more rows
…
You can see here that four different activity intensity variables are scattered across multiple rows. We need to get these variables into columns.

-   The column that contains variable names we use as the `key`: `activityintensity`

-   The column that contains values for the variables we use as the `value` : `minutes`

``` r
p1_p5_DailyIntensityMinutes <- spread_example %>% 
  spread(key = activityintensity, value = minutes)

p1_p5_DailyIntensityMinutes
```

    ## # A tibble: 25 x 6
    ##       id date       FairlyActiveMinut… LightlyActiveMinu… SedentaryMinutes
    ##    <int> <date>                  <int>              <int>            <int>
    ##  1     1 2015-01-09                  8                 81             1286
    ##  2     1 2015-01-10                 62                188              553
    ##  3     1 2015-01-11                 53                182              738
    ##  4     1 2015-01-12                 67                248              677
    ##  5     1 2015-01-13                 20                227              736
    ##  6     2 2015-01-09                 43                210              728
    ##  7     2 2015-01-10                 69                218              686
    ##  8     2 2015-01-11                 42                156              815
    ##  9     2 2015-01-12                 73                184              672
    ## 10     2 2015-01-13                 29                216              662
    ## # ... with 15 more rows, and 1 more variable: VeryActiveMinutes <int>
…
